9 . 주제모형(공변인) | R 텍스트마이닝
…
새로 생성된 열의 기사 양을 계산해보자.

vac2_df %>% count(cat, sort = T)

## # A tibble: 8 × 2
##   cat         n
##   <chr>   <int>
## 1 사회     3733
## 2 경제     2891
## 3 국제     2164
## 4 정치     2088
## 5 지역     1921
## 6 IT_과학   915
## # … with 2 more rows
문화와 스포츠를 검색단계서 선택하지 않았음에도 데이터셋에 포함된 이유는 하부 분류에 포함돼 있었기 때문이다.

vac2_df %>% count(catSoc, sort = T)

## # A tibble: 2 × 2
##   catSoc       n
##   <chr>    <int>
## 1 비사회면  8436
## 2 사회면    5654

비사회면 8436건, 사회면 5653건으로 문서 수에서 큰 차이가 나지 않는다.

vac2_df %>% count(week)

## # A tibble: 13 × 2
##    week     n
##   <dbl> <int>
## 1     1  1491
## 2     2  1299
## 3     3  1229
## 4     4  1379
## 5     5  1219
## 6     6   927
## # … with 7 more rows
…
"!@#$... 전각ㆍㅣ문자 %^&*()" %>% str_remove("\\w+")

## [1] "!@#$...  %^&*()"

fullchar_v <- "ㆍ|ㅣ|‘|’|“|”|○|●|◎|◇|◆|□|■|△|▲|▽|▼|〓|◁|◀|▷|▶|♤|♠|♡|♥|♧|♣|⊙|◈|▣"

vac_tk <- 
vac2_df %>% 
  mutate(키워드 = str_remove_all(키워드, "[^(\\w+|\\d+|,)]")) %>% 
  mutate(키워드 = str_remove_all(키워드, fullchar_v)) %>% 
  unnest_tokens(word, 키워드, token = "regex", pattern = ",") 

vac_tk %>% arrange(ID) %>% head(30)

## # A tibble: 30 × 9
##   일자     text                      언론사 cat   ID     week press catSoc word 
##   <chr>    <chr>                     <chr>  <chr> <fct> <dbl> <chr> <chr>  <chr>
## 1 20210330 美 국채 금리 상승에 뉴욕… 조선…  경제  1        13 야당… 비사…  국채 
## 2 20210330 美 국채 금리 상승에 뉴욕… 조선…  경제  1        13 야당… 비사…  금리 
## 3 20210330 美 국채 금리 상승에 뉴욕… 조선…  경제  1        13 야당… 비사…  상승 
## 4 20210330 美 국채 금리 상승에 뉴욕… 조선…  경제  1        13 야당… 비사…  출발 
## 5 20210330 美 국채 금리 상승에 뉴욕… 조선…  경제  1        13 야당… 비사…  뉴욕 
## 6 20210330 美 국채 금리 상승에 뉴욕… 조선…  경제  1        13 야당… 비사…  증시 
## # … with 24 more rows

vac_tk %>% arrange(ID) %>% tail(30)

## # A tibble: 30 × 9
##   일자     text                      언론사 cat   ID     week press catSoc word 
##   <chr>    <chr>                     <chr>  <chr> <fct> <dbl> <chr> <chr>  <chr>
## 1 20210101 "\"당연한 게 당연하지 않… 경향…  사회  14090     1 여당… 사회면 온라…
## 2 20210101 "\"당연한 게 당연하지 않… 경향…  사회  14090     1 여당… 사회면 자가 
## 3 20210101 "\"당연한 게 당연하지 않… 경향…  사회  14090     1 여당… 사회면 진단 
## 4 20210101 "\"당연한 게 당연하지 않… 경향…  사회  14090     1 여당… 사회면 제출 
## 5 20210101 "\"당연한 게 당연하지 않… 경향…  사회  14090     1 여당… 사회면 선생…
## 6 20210101 "\"당연한 게 당연하지 않… 경향…  사회  14090     1 여당… 사회면 부재…
## # … with 24 more rows

9.2.3.2 불용어 처리

빅카인즈의 형태소분석 결과를 이용하므로 별도의 불용어처리는 불필요하나, 의미없는 고빈도 단어를 선별할 필요가 있다. 단어의 총빈도를 계산해본다. ’백신’과 ’코로나19’의 빈도가 높다. 어느 한 단어가 압도적인 비중을 차지하는 것이 아니므로 제거하지 않고 그대로 둔다. ’코로나’는 ’코로나19’라는 질병의 이름으로 사용됐을수 있고, ’코로나바이러스’라는 병인으로 사용됐을수도 있으므로, ’코로나19’와 병합하지 말고 그대로 둔다.

count_df <- 
vac_tk %>% count(word, sort = T)

count_df %>% head(40)

## # A tibble: 40 × 2
##   word         n
##   <chr>    <int>
## 1 백신     34189
## 2 코로나19 32204
## 3 접종     24660
## 4 정부     14813
## 5 미국     12322
## 6 코로나   12120
## # … with 34 more rows

count_df %>% tail(40)

## # A tibble: 40 × 2
##   word               n
##   <chr>          <int>
## 1 히팅               1
## 2 힉스               1
## 3 힌덴버그리서치     1
## 4 힌두경전           1
## 5 힌두교식           1
## 6 힌두트바           1
## # … with 34 more rows
…
주제별 상위 7개 단어목록을 데이터프레임에 저장한 다음, 이름 목록과 결합한다.

td_beta <- meta_fit %>% tidy(matrix = 'beta') 

term_topic_name <- 
td_beta %>% 
  group_by(topic) %>% 
  slice_max(beta, n = 7) %>% 
  left_join(topic_name, by = "topic")

term_topic_name

## # A tibble: 63 × 4
## # Groups:   topic [9]
##   topic term              beta name          
##   <int> <chr>            <dbl> <chr>         
## 1     1 백신           0.0842  1. 백신 접종자
## 2     1 접종           0.0612  1. 백신 접종자
## 3     1 코로나         0.0249  1. 백신 접종자
## 4     1 아스트라제네카 0.0115  1. 백신 접종자
## 5     1 바이러스       0.00924 1. 백신 접종자
## 6     1 예방           0.00745 1. 백신 접종자
## # … with 57 more rows
…
9.4.4 주제별 문서 분포도

문서별로 부여된 감마 값을 이용한 주제별로 문서의 분포도를 각 주제의 이름과 함께 시각화한다.

td_gamma <- meta_fit %>% tidy(matrix = 'gamma') 

doc_topic_name <- 
td_gamma %>% 
  group_by(topic) %>% 
  left_join(topic_name, by = "topic")

doc_topic_name

## # A tibble: 126,810 × 4
## # Groups:   topic [9]
##   document topic    gamma name          
##      <int> <int>    <dbl> <chr>         
## 1        1     1 0.00602  1. 백신 접종자
## 2        2     1 0.944    1. 백신 접종자
## 3        3     1 0.0589   1. 백신 접종자
## 4        4     1 0.362    1. 백신 접종자
## 5        5     1 0.000923 1. 백신 접종자
## 6        6     1 0.00141  1. 백신 접종자
## # … with 126,804 more rows
…
# 주제별 감마 평균 계산  
gamma_terms <- 
td_gamma %>% 
  group_by(topic) %>% 
  summarise(gamma = mean(gamma)) %>% 
  left_join(top_terms, by = 'topic') %>%  # 주제별 단어 데이터프레임과 결합
  left_join(topic_name, by = 'topic')     # 주제 이름 데이터프레임과 결합

gamma_terms

## # A tibble: 9 × 4
##   topic  gamma terms                                                    name    
##   <int>  <dbl> <chr>                                                    <chr>   
## 1     1 0.152  백신, 접종, 코로나, 아스트라제네카, 바이러스, 예방, 영국 1. 백신…
## 2     2 0.106  코로나, 지원, 지급, 정부, 지원금, 재난, 매출             2. 코로…
## 3     3 0.100  달러, 투자, 기업, 코로나, 시장, 미국, 경제               3. 경제…
## 4     4 0.0838 코로나, 병원, 경찰, 환자, a씨, 의료, 법무부              4. 집단…
## 5     5 0.0996 미국, 중국, 일본, 한국, 코로나, 북한, 정부               5. 국제…
## 6     6 0.111  온라인, 교육, 코로나, 서비스, 지원, 사업, 학교           6. 교육…
## # … with 3 more rows
…
combined_df %>% 
  left_join(td_gamma, by = c("ID" = "document")) %>% 
  pivot_wider(
    names_from = topic,
    values_from = gamma,
    names_prefix = "tGamma",
    values_fill = 0
    ) %>% 

  arrange(-tGamma1) %>% 
  filter(str_detect(text, "백신")) %>% 
  mutate(text = str_replace_all(text, "백신", "**백신**")) %>% 
  head(30)

## # A tibble: 30 × 19
##      ID text2 일자  text  언론사 cat   키워드  week press catSoc tGamma1 tGamma2
##   <int> <chr> <chr> <chr> <chr>  <chr> <chr>  <dbl> <chr> <chr>    <dbl>   <dbl>
## 1  1847 770…  2021… "770… 조선…  국제  770만…    11 야당… 비사…    0.997 6.29e-5
## 2  8183 62 …  2021… "아…  중앙…  사회  62%,…      5 야당… 사회면   0.997 9.82e-5
## 3  6092 65세… 2021… "65…  조선…  사회  65세,…     7 야당… 사회면   0.997 9.09e-5
## 4  3822 유럽… 2021… "유…  중앙…  사회  유럽,…     9 야당… 사회면   0.996 9.26e-5
## 5  7362 az …  2021… "AZ … 중앙…  사회  AZ,고…     6 야당… 사회면   0.996 1.14e-4
## 6  1852 백신… 2021… "**…  조선…  국제  백신,…    11 야당… 비사…    0.996 9.27e-5
## # … with 24 more rows, and 7 more variables: tGamma3 <dbl>, tGamma4 <dbl>,
## #   tGamma5 <dbl>, tGamma6 <dbl>, tGamma7 <dbl>, tGamma8 <dbl>, tGamma9 <dbl>
…
ggplot2패키지를 이용하면 모다 다양한 방식으로 시각화할 수 있다. 앞서 명명한 주제의 이름이 막대도표에 표시되도록 먼저 데이터프레임을 결합한다.

# 주제 이름
topic_name

## # A tibble: 9 × 2
##   topic name            
##   <int> <chr>           
## 1     1 1. 백신 접종자  
## 2     2 2. 코로나 지원금
## 3     3 3. 경제 영향    
## 4     4 4. 집단 수용자  
## 5     5 5. 국제 관계    
## 6     6 6. 교육 온라인  
## # … with 3 more rows

# 공변인 계수
coef_df <- 
prep %>% tidy() %>% 
  filter(term == "press여당지")
coef_df

## # A tibble: 9 × 6
##   topic term        estimate std.error statistic  p.value
##   <int> <chr>          <dbl>     <dbl>     <dbl>    <dbl>
## 1     1 press여당지 -0.0693    0.00521    -13.3  4.30e-40
## 2     2 press여당지  0.0332    0.00454      7.31 2.90e-13
## 3     3 press여당지 -0.0105    0.00467     -2.25 2.47e- 2
## 4     4 press여당지  0.00413   0.00393      1.05 2.93e- 1
## 5     5 press여당지 -0.0103    0.00448     -2.31 2.08e- 2
## 6     6 press여당지 -0.0111    0.00481     -2.31 2.10e- 2
## # … with 3 more rows

# 주제별 상위 10개 단어 추출
top_terms <- 
meta_fit %>% tidy(matrix = "beta")  %>% 
  group_by(topic) %>% 
  slice_max(beta, n = 7) %>% 
  select(topic, term) %>% 
  summarise(terms = str_flatten(term, " "))

top_terms

## # A tibble: 9 × 2
##   topic terms                                             
##   <int> <chr>                                             
## 1     1 백신 접종 코로나 아스트라제네카 바이러스 예방 영국
## 2     2 코로나 지원 지급 정부 지원금 재난 매출            
## 3     3 달러 투자 기업 코로나 시장 미국 경제              
## 4     4 코로나 병원 경찰 환자 a씨 의료 법무부             
## 5     5 미국 중국 일본 한국 코로나 북한 정부              
## 6     6 온라인 교육 코로나 서비스 지원 사업 학교          
## # … with 3 more rows
…
ggplot2패키지로 시각화하기 위해 먼저 데이터프레임을 결합한다.

# 주제 이름
topic_name

## # A tibble: 9 × 2
##   topic name            
##   <int> <chr>           
## 1     1 1. 백신 접종자  
## 2     2 2. 코로나 지원금
## 3     3 3. 경제 영향    
## 4     4 4. 집단 수용자  
## 5     5 5. 국제 관계    
## 6     6 6. 교육 온라인  
## # … with 3 more rows

# 공변인 계수
coef_time <- 
prep %>% tidy() %>% 
  filter(str_detect(term, "^s"))
coef_time

## # A tibble: 54 × 6
##   topic term        estimate std.error statistic  p.value
##   <int> <chr>          <dbl>     <dbl>     <dbl>    <dbl>
## 1     1 s(week, 6)1 -0.00808    0.0180    -0.449 6.54e- 1
## 2     1 s(week, 6)2  0.00992    0.0174     0.571 5.68e- 1
## 3     1 s(week, 6)3  0.0206     0.0181     1.14  2.54e- 1
## 4     1 s(week, 6)4  0.135      0.0194     6.96  3.54e-12
## 5     1 s(week, 6)5  0.0830     0.0201     4.12  3.74e- 5
## 6     1 s(week, 6)6  0.0462     0.0147     3.16  1.60e- 3
## # … with 48 more rows
…
