3 . 헬로 월드 | R 텍스트마이닝
…
## # A tibble: 1 × 1
##   text                                                      
##   <chr>                                                     
## 1 "배우며 제때에 실행하면 진실로 즐겁지 않겠는가?\n        …

이제 생성된 데이터프레임을 tidytext패키지의 unnest_tokens함수를 이용해 정돈텍스트 구조로 바꿔보자. (철자에 주의. 복수 s)

앞서 만든 데이터프레임의 열 이름(“text”)을 input에 투입한 것을 잘 기억하자.

library(tidytext)
text_df %>% unnest_tokens(output = word, input = text)

## # A tibble: 21 × 1
##   word    
##   <chr>   
## 1 배우며  
## 2 제때에  
## 3 실행하면
## 4 진실로  
## 5 즐겁지  
## 6 않겠는가
## # … with 15 more rows

input : 입력한 데이터프레임의 열 이름

output : 출력할 정돈텍스트의 열 이름

이처럼 텍스트데이터를 컴퓨터가 분석할 수 있도록 양화할 수 있는 단위로 나누는 것은 토큰화(tkoenization)이라고 한다.

이번에는 토큰을 단어 2개로 묶은 ngram으로 정돈텍스트를 만들어 보자.

text_df %>% unnest_tokens(output = word, input = text, 
                          token = "ngrams", n = 2 )

## # A tibble: 20 × 1
##   word           
##   <chr>          
## 1 배우며 제때에  
## 2 제때에 실행하면
## 3 실행하면 진실로
## 4 진실로 즐겁지  
## 5 즐겁지 않겠는가
## 6 않겠는가 벗이  
## # … with 14 more rows
unnest_tokens함수의 자세한 사용법은 ?unnest_tokens의 도움말을 참고한다.

3.3 분석

3.3.1 빈도: count 함수

이제 텍스트마이닝을 해보자. 어떤 문서에서 많이 사용하는 단어가 있다면, 그 문서는 그 단어가 나타내는 의미에 의해 규정된다고 할 수 있다. “사랑”이란 단어를 많이 사용한 문서면 사랑에 대한 문서이고, “학습”이란 단어를 많이 사용했으면 학습에 대한 문서일 가능성이 높다.

문서에 등장하는 단어를 세어 주는 함수가 count다. count함수를 앞서 정돈텍스트 구조에 저장된 텍스트에 많이 등장한 단어가 무멋인지 찾아보자.

text_tk <- text_df %>% unnest_tokens(output = word, input = text)
text_tk %>% 
  count(word, sort = TRUE)

## # A tibble: 17 × 2
##   word           n
##   <chr>      <int>
## 1 않겠는가       3
## 2 즐겁지         2
## 3 참으로         2
## 4 곳에서부터     1
## 5 군자답지       1
## 6 남이           1
## # … with 11 more rows
…
(길은 뚫린 골목이라도 적당하오.)
13인의 아해가 도로로 질주하지 아니하여도 좋소."

# 자료준비
txt_df <- tibble(text = ogamdo_txt)

# 정제(토큰화) 및 분석
txt_tk <- txt_df %>% 
  unnest_tokens(output = word,
                input = text) %>% 
  count(word, sort = T)
txt_tk

## # A tibble: 45 × 2
##   word         n
##   <chr>    <int>
## 1 그리오      13
## 2 무섭다고    13
## 3 의          13
## 4 제          13
## 5 아해도      11
## 6 아해가       8
## # … with 39 more rows
…
