1 . 설치 및 환경설정 | R 텍스트마이닝
…
kkma_pos_res = kkma.pos('한편으로는 정말 빨리 잘 할 수 있을지 많이 기대됩니다.')

reticulate를 실행하게 되면 py$... 와 같은 방식으로 ... 객체를 R에서 불러와서 후속작업을 수행할 수 있다.

library(reticulate)
library(tidyverse)

pos_tbl <- py$kkma_pos_res %>% 
  enframe() %>% 
  mutate(text = map_chr(value, 1),
         pos  = map_chr(value, 2))
  
pos_tbl

## # A tibble: 15 × 4
##    name value      text  pos  
##   <int> <list>     <chr> <chr>
## 1     1 <list [2]> 한편  NNG  
## 2     2 <list [2]> 으로  JKM  
## 3     3 <list [2]> 는    JX   
## 4     4 <list [2]> 정말  MAG  
## 5     5 <list [2]> 빨리  MAG  
## 6     6 <list [2]> 잘    MAG  
## # … with 9 more rows
…
