8 . 감성분석 | R 텍스트마이닝
…
## Rows: 14,855
## Columns: 2
## $ word   <chr> "(-;", "(;_;)", "(^^)", "(^-^)", "(^^*", "(…
## $ sScore <dbl> 1, -1, 1, 1, 1, 1, -1, 1, -1, -1, -1, -1, 1…

이제 KNU한국어감성사전을 R환경에서 사용할 수 있다.

8.2.2 사전내용

KNU감성사전에 포함된 긍정단어와 부정단어를 살펴보자.

senti_dic_df %>% filter(sScore == 2) %>% arrange(word)

## # A tibble: 2,603 × 2
##   word              sScore
##   <chr>              <dbl>
## 1 가능성이 늘어나다      2
## 2 가능성이 있다고        2
## 3 가능하다               2
## 4 가볍고 상쾌하다        2
## 5 가볍고 상쾌한          2
## 6 가볍고 시원하게        2
## # … with 2,597 more rows

senti_dic_df %>% filter(sScore == -2) %>% arrange(word)

## # A tibble: 4,799 × 2
##   word         sScore
##   <chr>         <dbl>
## 1 가난             -2
## 2 가난뱅이         -2
## 3 가난살이         -2
## 4 가난살이하다     -2
## 5 가난설음         -2
## 6 가난에           -2
## # … with 4,793 more rows
…
형태소를 추출해 분석해보자. RcppMeCab 사용

con_v %>% enc2utf8 %>% tibble(text = .) %>% 
  unnest_tokens(output = word, 
                input = text,
                token = RcppMeCab::pos) %>%
  separate(col = word, 
           into = c("word", "morph"),
           sep = "/") %>% 
  inner_join(knu_dic_df)

## # A tibble: 7 × 3
##   word  morph sScore
##   <chr> <chr>  <dbl>
## 1 조화  nng        2
## 2 능력  nng        1
## 3 최고  nng        2
## 4 향상  nng        1
## 5 안전  nng        2
## 6 행복  nng        2
## # … with 1 more row
…
데이터는 리스트구조의 data열 안의 93행 4열의 데이터프레임에 저장돼 있다. data 열만 선택하고 unnest() 함수로 리스트를 풀어 일반적인 데이터프레임으로 변환한 뒤에 글자수 기준으로 역정렬한다.

jikji_epub <- epub("data/jikji.epub")

jikji_epub %>% 
  select(data) %>% 
  unnest(data) %>% 
  arrange( desc(nchar) )

## # A tibble: 93 × 4
##   section   text                                nword  nchar
##   <chr>     <chr>                               <int>  <int>
## 1 x1.xhtml  "12월 12일(十二月 十二日)\n\n  지…    449 102011
## 2 x9.xhtml  "구운몽(완판 105장본) 현대문\n\n  …    15  86078
## 3 x90.xhtml "혈의 누(血の淚)\n\n  지은이: 이인…    95  61151
## 4 x84.xhtml "타락자 (墮落者)\n\n  지은이: 현진…   130  51379
## 5 x78.xhtml "지형근(池亨根)\n\n  지은이: 나도…     25  36357
## 6 x85.xhtml "퇴별가 -완판본-\n\n  이 글은 인권…     8  32444
## # … with 87 more rows

8.4.2 정제

text열에 93편의 소설 본문이 들어있다. 자료구조가 데이터프레임을 확장한 티블(tibble)이라 후속 텍스트 정제나 분석작업에 필요한 소설이 텍스트 형태로 어떻게 담겨있고 몇개나 있는지 쉽게 파악된다.

novel_raw <- jikji_epub %>% 
  select(data) %>% 
  unnest(data) %>% 
  select(text) 

novel_raw

## # A tibble: 93 × 1
##   text                                                      
##   <chr>                                                     
## 1 "17원 50전(十七圓五十錢)--- 젋은 화가 A의 눈물 한 방울\n\…
## 2 "B사감(舍監)과 러브레터\n\n  지은이: 현진건\n\n    출전: …
## 3 "경희(瓊姬)\n\n  지은이: 나혜석\n\n    출판사: 여자계1\n\…
## 4 "계집 하인\n\n  지은이: 나도향\n\n    출전: 조선 문단 5월…
## 5 "고향\n\n  지은이: 현진건\n\n    출전: 조선의 얼굴 <1926.…
## 6 "공포(恐怖)의 기록(記錄)\n\n  지은이: 이상\n\n    출전: … 
## # … with 87 more rows
…
novel_tbl <- novel_raw %>% 
  transmute(제목 = str_extract(text, ".*\\b"),
            지은이 = str_extract(text, "지은이.*\\b") %>% str_remove("지은이: "),
            출전 = str_extract(text, "출전.*\\b") %>% 
              str_remove(":") %>% str_remove("\\)") %>% str_remove("출전 "),
            본문 = str_squish(text) %>% 
  str_extract("본문.*") %>%
  str_remove("본문|:"))

novel_tbl

## # A tibble: 93 × 4
##   제목                                    지은이 출전  본문 
##   <chr>                                   <chr>  <chr> <chr>
## 1 17원 50전(十七圓五十錢)--- 젋은 화가 A… 나도향 개벽… " 첫…
## 2 B사감(舍監)과 러브레터                  현진건 조선… " 여…
## 3 경희(瓊姬                               나혜석 NA    " 1 …
## 4 계집 하인                               나도향 조선… " 1 …
## 5 고향                                    현진건 조선… " 대…
## 6 공포(恐怖)의 기록(記錄                  이상   매일… " 서…
## # … with 87 more rows
…
형태소를 분석한 결과를 통해 나타난 두 문서의 감정이 조금 더 긍정적으로 변했다. 형태소분석하면서 부정어휘로 구분됐던 단어들이 한글자로 분리돼 불용어로 제거된 결과다.

8.4.4 소설 감정점수

’권태’와 ’규원’의 감정점수를 비교해 어느 글이 더 부정적인지 살펴보자. 각 토큰에 감정점수 부여한다. 감정사전에 없는 단어를 남겨두기 위해 left_join()이용

sosul2_df %>% 
  unnest_tokens(word, main) %>% 
  left_join(knu_dic_df) %>% 
  mutate(sScore = ifelse(is.na(sScore), 0, sScore)) %>% 
  arrange(sScore)

## # A tibble: 5,959 × 5
##   title author source word   sScore
##   <chr> <chr>  <chr>  <chr>   <dbl>
## 1 권태  이상   NA     위험한     -2
## 2 권태  이상   NA     아프게     -2
## 3 권태  이상   NA     어려운     -2
## 4 권태  이상   NA     밉다       -2
## 5 권태  이상   NA     거칠고     -2
## 6 권태  이상   NA     아니다     -2
## # … with 5,953 more rows
…
## # A tibble: 2 × 1
##   sScore
##    <dbl>
## 1     -1
## 2     -2

긍정어 사전과 부정어 사전을 결합하여 두 소설에 포함된 단어 감성빈도를 계산해보자.

sosul2_df %>% 
  unnest_tokens(word, main) %>% 
  inner_join(knu_pos_df) %>% 
  count(author, word, sort = TRUE)

## # A tibble: 32 × 3
##   author word         n
##   <chr>  <chr>    <int>
## 1 이상   귀여운       3
## 2 이상   잘           3
## 3 나혜석 사랑으로     2
## 4 나혜석 잘           2
## 5 이상   좋다         2
## 6 나혜석 고쳐         1
## # … with 26 more rows

sosul2_df %>% 
  unnest_tokens(word, main) %>% 
  inner_join(knu_neg_df) %>% 
  count(author, word, sort = TRUE)

## # A tibble: 93 × 3
##   author word       n
##   <chr>  <chr>  <int>
## 1 이상   없다      30
## 2 나혜석 해        11
## 3 이상   권태       7
## 4 나혜석 못하고     5
## 5 이상   답답한     4
## 6 이상   모르는     4
## # … with 87 more rows
…
8.4.7 문장 전개에 따른 감정변화

문장 단위로 토큰화하고, row_number()를 이용해 각 문장단위로 번호를 부여한다.

sosul2_df %>% 
  unnest_tokens(sentence, main, token = "sentences") %>% 
  mutate(linenumber = row_number()) %>% 
  unnest_tokens(word, sentence)

## # A tibble: 5,959 × 5
##   title author source linenumber word        
##   <chr> <chr>  <chr>       <int> <chr>       
## 1 권태  이상   NA              1 1           
## 2 권태  이상   NA              1 어서        
## 3 권태  이상   NA              1 차라리      
## 4 권태  이상   NA              1 어둬버리기나
## 5 권태  이상   NA              1 했으면      
## 6 권태  이상   NA              1 좋겠는데    
## # … with 5,953 more rows

5수준인 감정사전의 감정점수를 긍정과 부정 등 2수준으로 축소하자.

sosul2_df %>% 
  unnest_tokens(sentence, main, token = "sentences") %>% 
  mutate(linenumber = row_number()) %>% 
  unnest_tokens(word, sentence) %>% 
  inner_join(knu_dic_df) %>% 
  mutate(emotion = case_when(sScore > 0 ~ "긍정",
                             sScore < 0 ~ "부정",
                             TRUE       ~ "중립"))

## # A tibble: 224 × 7
##   title author source linenumber word  sScore emotion
##   <chr> <chr>  <chr>       <int> <chr>  <dbl> <chr>  
## 1 권태  이상   NA              7 바른       2 긍정   
## 2 권태  이상   NA             14 사랑       2 긍정   
## 3 권태  이상   NA             15 좋다       2 긍정   
## 4 권태  이상   NA             19 잘         1 긍정   
## 5 권태  이상   NA             24 없다      -1 부정   
## 6 권태  이상   NA             25 권태      -1 부정   
## # … with 218 more rows
…
## [1] 0 0 1 1 2 2

여러 행을 묶지 않고 지은이 별로 감정어의 빈도를 계산하면 334행에는 긍정단어 2개, 부정단어가 1개 있음을 알수 있다.

sosul2_df %>% 
  unnest_tokens(sentence, main, token = "sentences") %>% 
  mutate(linenumber = row_number()) %>% 
  unnest_tokens(word, sentence) %>% 
  inner_join(knu_dic_df) %>% 
  mutate(emotion = case_when(sScore > 0 ~ "긍정",
                             sScore < 0 ~ "부정",
                             TRUE       ~ "중립")) %>% 
  count(author, index = linenumber, emotion)

## # A tibble: 190 × 4
##   author index emotion     n
##   <chr>  <int> <chr>   <int>
## 1 나혜석   334 긍정        2
## 2 나혜석   334 부정        1
## 3 나혜석   335 부정        1
## 4 나혜석   336 부정        1
## 5 나혜석   336 중립        1
## 6 나혜석   338 긍정        1
## # … with 184 more rows

각 행을 10으로 정수나눗셈을 하면 10개 행씩 모두 같은 값으로 묶을 수 있다. 334행부터 339행인 33이 된다. 긍정단어와 부정단어도 각각 5개가 된다.

sosul2_df %>% 
  unnest_tokens(sentence, main, token = "sentences") %>% 
  mutate(linenumber = row_number()) %>% 
  unnest_tokens(word, sentence) %>% 
  inner_join(knu_dic_df) %>% 
  mutate(emotion = case_when(sScore > 0 ~ "긍정",
                             sScore < 0 ~ "부정",
                             TRUE       ~ "중립")) %>% 
  count(author, index = linenumber %/% 10, emotion)

## # A tibble: 89 × 4
##   author index emotion     n
##   <chr>  <dbl> <chr>   <int>
## 1 나혜석    33 긍정        5
## 2 나혜석    33 부정        5
## 3 나혜석    33 중립        2
## 4 나혜석    34 긍정        2
## 5 나혜석    34 부정        8
## 6 나혜석    35 긍정        1
## # … with 83 more rows
…
sosul2_emo_df <- sosul2_df %>% 
  unnest_tokens(sentence, main, token = "sentences") %>% 
  mutate(linenumber = row_number()) %>% 
  unnest_tokens(word, sentence) %>% 
  inner_join(knu_dic_df) %>% 
  mutate(emotion = case_when(sScore > 0 ~ "긍정",
                             sScore < 0 ~ "부정",
                             TRUE       ~ "중립")) %>% 
  count(author, index = linenumber %/% 10, emotion) %>% 
  pivot_wider(names_from = emotion, values_from = n, values_fill = 0) %>%   mutate(sentiment = 긍정 - 부정) 

sosul2_emo_df

## # A tibble: 59 × 6
##   author index  긍정  부정  중립 sentiment
##   <chr>  <dbl> <int> <int> <int>     <int>
## 1 나혜석    33     5     5     2         0
## 2 나혜석    34     2     8     0        -6
## 3 나혜석    35     1     4     0        -3
## 4 나혜석    37     2     2     1         0
## 5 나혜석    38     0     1     0        -1
## 6 나혜석    39     1     6     0        -5
## # … with 53 more rows
…
