1 . 정제(전처리) | book-tm
…
1.1.1 단어

unnest_tokens()함수에서 토큰의 기본값으로 설정된 단위는 단어(“words”)다.

text_v <- 
"You still fascinate and inspire me.
You influence me for the better. 
You’re the object of my desire, the #1 Earthly reason for my existence."

tibble(text = text_v) %>% 
  unnest_tokens(output = word, input = text,
                token = "words")

## # A tibble: 25 × 1
##   word     
##   <chr>    
## 1 you      
## 2 still    
## 3 fascinate
## 4 and      
## 5 inspire  
## 6 me       
## # … with 19 more rows

1.1.2 글자 토큰

token =인자에 “characters”를 투입하면 글자 단위로 토큰화한다.

tibble(text = text_v) %>% 
  unnest_tokens(output = word, 
                input = text,
                token = "characters") %>% 
  count(word, sort = TRUE)

## # A tibble: 21 × 2
##   word      n
##   <chr> <int>
## 1 e        20
## 2 t        10
## 3 o         8
## 4 r         8
## 5 i         7
## 6 n         7
## # … with 15 more rows

1.1.3 복수의 글자

복수의 글자를 토큰의 단위로 할 때는 “character_shingles”을 token =인자에 투입한다. 기본값은 3글자.

tibble(text = text_v) %>% 
  unnest_tokens(output = word, 
                input = text,
                token = "character_shingles", 
                n = 4) %>% 
  count(word, sort = TRUE)

## # A tibble: 104 × 2
##   word      n
##   <chr> <int>
## 1 ence      2
## 2 ethe      2
## 3 reth      2
## 4 1ear      1
## 5 andi      1
## 6 arth      1
## # … with 98 more rows

1.1.4 복수의 단어(n-gram)

복수의 단어를 토콘 단위로 나눌 때는 token =인자에 “ngrams”인자를 투입한다. 기본값은3개이다.

tibble(text = text_v) %>% 
  unnest_tokens(output = word, 
                input = text,
                token = "ngrams", 
                n = 4) %>% 
  count(word, sort = TRUE)

## # A tibble: 22 × 2
##   word                         n
##   <chr>                    <int>
## 1 1 earthly reason for         1
## 2 and inspire me you           1
## 3 better you’re the object     1
## 4 desire the 1 earthly         1
## 5 earthly reason for my        1
## 6 fascinate and inspire me     1
## # … with 16 more rows
…
1.1.7 영어 소문자

영문은 대문자와 소문자 구분이 있다. to_lower =인자의 기본값은 TRUE다.
즉, to_lower = TRUE 이 기본설정이다.
FALSE를 로 지정하면 대문자를 모두 소문자로 변경하지 않는다.
영문문서에서 사람이름이나 지명을 구분해야 한다면 토큰화 과정에서
모든 단어를 소문자화하지 말아야 한다.

tibble(text = text_v) %>% 
  unnest_tokens(output   = word, 
                input    = text,
                to_lower = FALSE)

## # A tibble: 25 × 1
##   word     
##   <chr>    
## 1 You      
## 2 still    
## 3 fascinate
## 4 and      
## 5 inspire  
## 6 me       
## # … with 19 more rows

1.1.8 문장부호

추가인자는 tokenizers함수로 전달해 다양한 설정을 할 수 있다.
예를 들어, strip_punct =인자에 FALSE를 투입하면,
문장부호를 제거하지 않는다.

tibble(text = text_v) %>% 
  unnest_tokens(output = word, input = text,
                token = "words",
                strip_punct = FALSE)

## # A tibble: 30 × 1
##   word     
##   <chr>    
## 1 you      
## 2 still    
## 3 fascinate
## 4 and      
## 5 inspire  
## 6 me       
## # … with 24 more rows
1.2 불용어 제거

불용어(stop words)는 말 그대로 사용하지 않는 단어다.
불용어를 문자 그대로 해석하면 사용하지 않는 단어에 국한된다. 넓은 의미로 해석하면, 사용빈도가 높아 분석에 의미가 없거나, 내용을 나타내는데 기여하지 않는 단어, 숫자, 특수문자, 구두점, 공백문자, 기호 등이 포함된다.

무엇이 불용어가 돼야 하는지는 상황에 따라 다르다. 에를 들어, 대명사는 대부분의 불용어사전에 불용어로 포함돼 있지만, 분석 목적에 따라서는 대명사는 분석의 핵심단위가 되기도 한다. 기호도 마찬가지다. 기호를 이용한 이모티콘은 문서의 의미를 전달하기 때문에 모든 기호를 일괄적으로 제거해서는 안된다.

앞서 제시한 연애편지를 문자 단위로 토큰화해 단어의 빈도를 계산해보자.

tibble(text = text_v) %>% 
  unnest_tokens(output = word, 
                input = text) %>% 
  count(word, sort = TRUE)

## # A tibble: 19 × 2
##   word      n
##   <chr> <int>
## 1 the       3
## 2 for       2
## 3 me        2
## 4 my        2
## 5 you       2
## 6 1         1
## # … with 13 more rows
…
불용어사전으로 불용어를 걸러낸 다음 단어빈도를 계산해보자.

data(stop_words)

tibble(text = text_v) %>%
  unnest_tokens(output = word, input = text) %>% 
  anti_join(stop_words) %>% 
  count(word, sort = TRUE)

## # A tibble: 10 × 2
##   word          n
##   <chr>     <int>
## 1 1             1
## 2 desire        1
## 3 earthly       1
## 4 existence     1
## 5 fascinate     1
## 6 influence     1
## # … with 4 more rows
결과를 보면 “you”등 대명사가 포함된 토큰은 모두 제거됐는데, “you’re”는 그대로 남아 있다. 불용어 사전에는 “you’re”로 홑따옴표(quotation mark)'를 이용했는데, 본문에는 “you’re”로 홑낫표(aphostrophe)’를 이용했기 때문이다. 불용어사전으로 본문의 “you’re”를 제거하기 위해서는 둘 중 한가지는 해야 한다. 본몬의 홑낫표를 홑따옴표로 변경하거나, 불용어사전을 수정한다.

1.2.2 본문 수정

먼저 본문 수정을 해보자.

tapo_v <- text_v %>% 
  str_replace_all("’", "'")

tibble(text = tapo_v) %>%
  unnest_tokens(output = word, input = text) %>% 
  anti_join(stop_words) %>% 
  count(word, sort = TRUE)

## # A tibble: 9 × 2
##   word          n
##   <chr>     <int>
## 1 1             1
## 2 desire        1
## 3 earthly       1
## 4 existence     1
## 5 fascinate     1
## 6 influence     1
## # … with 3 more rows
…
새로 만든 불용어사전으로 정체한 후 단어 빈도를 계산해보자.

tibble(text = text_v) %>%
  unnest_tokens(output = word, input = text) %>% 
  anti_join(stop_words2) %>% 
  count(word, sort = TRUE)

## # A tibble: 8 × 2
##   word          n
##   <chr>     <int>
## 1 desire        1
## 2 earthly       1
## 3 existence     1
## 4 fascinate     1
## 5 influence     1
## 6 inspire       1
## # … with 2 more rows
…
1.2.5 불용어 목록 만들기

제거하고 싶은 불용어를 최소화하고 싶을 때는 불용어 목록을 직접 만들수도 있다. “the, for, and”등이 포함된 불용어 목록을 만들어 정제해 보자. “the, for, and”등 불용어목록을 데이터프레임에 저장한 다음, anti_join()함수를 이용해 토큰데이터프레임과 배제결합한다.

stop_df <- tibble(word = c("the","for", "and"))

tibble(text = text_v) %>% 
  unnest_tokens(output = word, input = text) %>% 
  anti_join(stop_df) %>% 
  filter(!str_detect(word, "\\d+")) %>% 
  count(word, sort = TRUE)

## # A tibble: 15 × 2
##   word        n
##   <chr>   <int>
## 1 me          2
## 2 my          2
## 3 you         2
## 4 better      1
## 5 desire      1
## 6 earthly     1
## # … with 9 more rows
…
불용어를 제거한 다음 추가로 본문에서 숫자와 홑낫표”’“가 포함된 문제를 제거하자.

tibble(text = text_v) %>%
  unnest_tokens(output = word, 
                input = text) %>% 
  anti_join(stop_words) %>% 
  filter(
    !str_detect(word, pattern = "\\d+"),
    !str_detect(word, pattern = "you’re")
    ) %>% 
  count(word, sort = TRUE)

## # A tibble: 8 × 2
##   word          n
##   <chr>     <int>
## 1 desire        1
## 2 earthly       1
## 3 existence     1
## 4 fascinate     1
## 5 influence     1
## 6 inspire       1
## # … with 2 more rows
…
hunspell은 리스트로 산출하므로 unnest()함수로 리스트구조를 풀어준다. unnest()는 flatten_()계열과 달리 데이터프레임을 입력값으로 받는다.
hunspell_stem() 함수로 어간추출을 한 다음 어간추출 결과를 단어별로 확인해본다.
이를 위해서 glue 패키지 glue() 함수를 사용하는데 Base R에서
paste()에 해당하는 함수와 개념이 동일하지만 구문작성이 직관적이고
가독성도 뛰어나다.

library(hunspell)

love_v %>% tibble(text = .) %>% 
  unnest_tokens(word, text) %>% 
  mutate(hunspell = hunspell_stem(word))  %>% 
  mutate(hunspell_word = glue::glue("{hunspell}", collapse= ","))

## # A tibble: 12 × 3
##   word   hunspell  hunspell_word      
##   <chr>  <list>    <glue>             
## 1 love   <chr [1]> love               
## 2 loves  <chr [1]> love               
## 3 loved  <chr [2]> c("loved", "love") 
## 4 love's <chr [1]> love               
## 5 lovely <chr [2]> c("lovely", "love")
## 6 loving <chr [2]> c("loving", "love")
## # … with 6 more rows

unnest()로 리스트를 풀면 토큰의 수가 늘어난다. hunspell_stem()함수가 스테밍 전후의 단어를 모두 산출하기 때문이다. hunspell로 어간추출할때는 주의해야 한다. hunspell패키지의 목적이 텍스트분석이 아니라 철자확인이다.

library(SnowballC)

love_v %>% 
  tibble(text = .) %>% 
  unnest_tokens(word, text) %>% 
  mutate(SnowballC = wordStem(word),
         hunspell = hunspell_stem(word)) %>% 
  mutate(hunspell = glue::glue("{hunspell}", collapse= ","))

## # A tibble: 12 × 3
##   word   SnowballC hunspell           
##   <chr>  <chr>     <glue>             
## 1 love   love      love               
## 2 loves  love      love               
## 3 loved  love      c("loved", "love") 
## 4 love's love'     love               
## 5 lovely love      c("lovely", "love")
## 6 loving love      c("loving", "love")
## # … with 6 more rows
…
행(row) 하나에 토큰(token)이 하나만 할당 (one-token-per-row).

s27_v %>% SnowballC::wordStem()

## [1] "Weary with toil I haste me to my bed,\nThe dear repose for limbs with travel tired;\nBut then begins a journey in my head\nTo work my mind when body's work's expired;\nFor then my thoughts, from far where I abide,\nIntend a zealous pilgrimage to thee,\nAnd keep my drooping eyelids open wide\nLooking on darkness which the blind do see:\nSave that my soul's imaginary sight\nPresents thy shadow to my sightless view,\nWhich like a jewel hung in ghastly night\nMakes black night beauteous and her old face new.\nLo! thus by day my limbs, by night my mind,\nFor thee, and for myself, no quietness find."

토큰화를 먼저 한 다음에 어간을 추출한다.

s27_v %>% tibble(text = . ) %>% 
  unnest_tokens(word, text) %>% 
  mutate(stemmed = wordStem(word)) %>% 
  count(stemmed, sort = T)

## # A tibble: 81 × 2
##   stemmed     n
##   <chr>   <int>
## 1 my          9
## 2 for         4
## 3 to          4
## 4 a           3
## 5 and         3
## 6 night       3
## # … with 75 more rows
…
