5 . 텍스트 전처리 | R 텍스트마이닝
…
(길은 뚫린 골목이라도 적당하오.)
13인의 아해가 도로로 질주하지 아니하여도 좋소."

ogamdo_tbl <- ogamdo_txt %>% 
  str_split(pattern = "\n") %>%       # 문장단위로 행을 구분
  tibble::enframe(value = "text") %>% # 데이터프레임 변환
  tidyr::unnest(text) %>%             # 행기준으로 펼치기
  mutate(행 = row_number()) %>%       # 행번호 붙이기
  select(행, text)
  
ogamdo_tbl

## # A tibble: 25 × 2
##      행 text                            
##   <int> <chr>                           
## 1     1 "13인의 아해가 도로로 질주하오."
## 2     2 "(길은 막다른 골목이 적당하오.)"
## 3     3 ""                              
## 4     4 "제1의 아해가 무섭다고 그리오." 
## 5     5 "제2의 아해도 무섭다고 그리오." 
## 6     6 "제3의 아해도 무섭다고 그리오." 
## # … with 19 more rows
…
