8 . 단어 빈도수 | R 텍스트마이닝
…
\(tf_{document}\): 각 문서에 등장한 해당 단어의 빈도

\(tf_{total}\): 각 문서에 등장한 모든 단어의 수

tf의 분자인 \(tf_{document}\)(각 문서에 등장한 해당 단어의 빈도)를 구한다. 여기서 각 문서는 각 행이다. 따라서 각 행에서 등장한 단어의 빈도를 계산하면 된다.

sky_tfd <- sky_doc %>% 
  unnest_tokens(word, sentence) %>% 
  anti_join(stop_words) %>% 
  count(line_id, word, name = "tf_doc")
  
sky_tfd

## # A tibble: 10 × 3
##   line_id word   tf_doc
##   <fct>   <chr>   <int>
## 1 1       blue        1
## 2 1       sky         1
## 3 2       bright      1
## 4 2       sun         1
## 5 3       bright      1
## 6 3       sky         1
## # … with 4 more rows
…
\(tf_{document}\)(각 문서에 등장한 해당 단어의 빈도)를 \(tf_{total}\)(각 문서에 등장한 모든 단어의 수)로 나눈다.

sky_tf <- left_join(sky_tfd, sky_tft) %>% 
  mutate(tf = tf_doc/tf_total)

sky_tf

## # A tibble: 10 × 5
##   line_id word   tf_doc tf_total    tf
##   <fct>   <chr>   <int>    <int> <dbl>
## 1 1       blue        1        2 0.5  
## 2 1       sky         1        2 0.5  
## 3 2       bright      1        2 0.5  
## 4 2       sun         1        2 0.5  
## 5 3       bright      1        3 0.333
## 6 3       sky         1        3 0.333
## # … with 4 more rows
…
공식을 그대로 적용해 계산한다. sky_tf에 N의 값을 계산해 두 데이터프레임을 열방향 결합한다.

sky_tf <- sky_tf %>% 
  mutate(N = length(unique(line_id))) #total number of documnets

sky_idf <- 
  left_join(sky_tf, sky_df) %>% 
  mutate(idf = log(N / df))

sky_idf

## # A tibble: 10 × 8
##   line_id word   tf_doc tf_total    tf     N    df   idf
##   <fct>   <chr>   <int>    <int> <dbl> <int> <int> <dbl>
## 1 1       blue        1        2 0.5       4     1 1.39 
## 2 1       sky         1        2 0.5       4     2 0.693
## 3 2       bright      1        2 0.5       4     3 0.288
## 4 2       sun         1        2 0.5       4     3 0.288
## 5 3       bright      1        3 0.333     4     3 0.288
## 6 3       sky         1        3 0.333     4     2 0.693
## # … with 4 more rows
…
\[
  tfidf(t, d, D) = tf(t, d) \times idf(t, D)
\]

t: 단어

d: 개별 문서

D: 개별 문서의 집합(말뭉치)

sky_idf %>% 
  mutate(tf_idf = tf * idf) %>% 
  arrange(-tf_idf)

## # A tibble: 10 × 9
##   line_id word    tf_doc tf_total    tf     N    df   idf
##   <fct>   <chr>    <int>    <int> <dbl> <int> <int> <dbl>
## 1 1       blue         1        2 0.5       4     1 1.39 
## 2 4       shining      1        3 0.333     4     1 1.39 
## 3 1       sky          1        2 0.5       4     2 0.693
## 4 3       sky          1        3 0.333     4     2 0.693
## 5 4       sun          2        3 0.667     4     3 0.288
## 6 2       bright       1        2 0.5       4     3 0.288
## # … with 4 more rows, and 1 more variable: tf_idf <dbl>
…
tidytext패키지에서 제공하는 bind_tf_idf(tbl, term, document, n)함수를 이용하면 tf_idf를 계산할 수 있다.

tbl: 정돈데이터(한행에 값 하나).

term: 문자열이나 기호 등의 단어가 저장된 열.

document: 문자열이나 기호 등의 문서식별부호가 저장된 열.

n: 문자열이나 기호 등의 문서-용어의 빈도가 저장된 열.

sky_tfd %>% 
  bind_tf_idf(tbl = ., term = word, document = line_id, n = tf_doc)

## # A tibble: 10 × 6
##   line_id word   tf_doc    tf   idf tf_idf
##   <fct>   <chr>   <int> <dbl> <dbl>  <dbl>
## 1 1       blue        1 0.5   1.39  0.693 
## 2 1       sky         1 0.5   0.693 0.347 
## 3 2       bright      1 0.5   0.288 0.144 
## 4 2       sun         1 0.5   0.288 0.144 
## 5 3       bright      1 0.333 0.288 0.0959
## 6 3       sky         1 0.333 0.693 0.231 
## # … with 4 more rows
…
RcppMeCab패키지에서 pos()함수로 형태소를 추출한 뒤, 일반명사(‘nng’)만 추출해 빈도를 계산한다.

by1000_df %>% 
  unnest_tokens(word, document, token = RcppMeCab::pos) %>% 
  separate(word, c("word", "pos"), sep = "/") %>% 
  filter(pos == "nng") %>% 
  filter(word != "영화") %>% 
  count(word, sort = TRUE)

## # A tibble: 2,819 × 3
## # Groups:   label [2]
##   label word       n
##   <dbl> <chr>  <int>
## 1     1 최고      83
## 2     1 감동      58
## 3     1 연기      58
## 4     1 생각      51
## 5     0 감독      46
## 6     0 스토리    46
## # … with 2,813 more rows

영화평은 긍정적인 평에는 ‘1’, 부정적인 평에는 ’0’으로 분류돼 있다. 긍정적인 평과 부정적인 평에 사용된 명사의 승산비를 구해보자. 이를 위해 long form을 wide form으로 변형해 label열의 값을 열의 헤더로 변환하고, 각 열의 값으로는 토큰을 투입한다. 결측값이 있으면 연산이 안되므로 NA값은 ’0’으로 채운다.

by1000_df %>% 
  unnest_tokens(word, document, token = RcppMeCab::pos) %>% 
  separate(word, c("word", "pos"), sep = "/") %>% 
  filter(pos == "nng") %>% 
  filter(word != "영화") %>% 
  count(word) %>% 
  pivot_wider(names_from = label,
              values_from = n, 
              values_fill = list(n = 0))

## # A tibble: 2,294 × 3
##   word    `0`   `1`
##   <chr> <int> <int>
## 1 가가      1     0
## 2 가관      1     0
## 3 가능      1     4
## 4 가든      1     0
## 5 가리      1     0
## 6 가문      1     0
## # … with 2,288 more rows
…
by1000_df %>% 
  unnest_tokens(word, document, token = RcppMeCab::pos) %>% 
  separate(word, c("word", "pos"), sep = "/") %>% 
  filter(pos == "nng") %>% 
  filter(word != "영화") %>% 
  count(word) %>% 
  pivot_wider(names_from = label,
              values_from = n, 
              values_fill = list(n = 0)) %>% 
  rename(posi = `1`, nega = `0`) %>% 
  mutate(odds_posi = ((posi+1)/sum(posi+1)),
         odds_nega = ((nega+1)/sum(nega+1))) %>% 
  mutate(posi_odds_ratio = (odds_posi / odds_nega)) 

## # A tibble: 2,294 × 6
##   word   nega  posi odds_posi odds_nega posi_odds_ratio
##   <chr> <int> <int>     <dbl>     <dbl>           <dbl>
## 1 가가      1     0  0.000181  0.000334           0.541
## 2 가관      1     0  0.000181  0.000334           0.541
## 3 가능      1     4  0.000903  0.000334           2.70 
## 4 가든      1     0  0.000181  0.000334           0.541
## 5 가리      1     0  0.000181  0.000334           0.541
## 6 가문      1     0  0.000181  0.000334           0.541
## # … with 2,288 more rows
…
’밋’과 ’ㄷ’이 사용된 문장을 살펴보자. drop =인자에 FALSE를 투입하면 토큰화한 문장을 제거하지 않고 남겨둔다.

by1000_df %>% 
  unnest_tokens(word, document, token = RcppMeCab::pos, drop = FALSE) %>% 
  separate(word, c("word", "pos"), sep = "/") %>% 
  filter(pos == "nng") %>% 
  filter(word == "밋" | word == "ㄷ") 

## # A tibble: 31 × 4
## # Groups:   label [1]
##   label document                                word  pos  
##   <dbl> <chr>                                   <chr> <chr>
## 1     1 "이보다 더 유쾌할 수 없고 이보다 더 무… 밋    nng  
## 2     1 "이보다 더 유쾌할 수 없고 이보다 더 무… ㄷ    nng  
## 3     1 "이보다 더 유쾌할 수 없고 이보다 더 무… ㄷ    nng  
## 4     1 "이보다 더 유쾌할 수 없고 이보다 더 무… ㄷ    nng  
## 5     1 "이보다 더 유쾌할 수 없고 이보다 더 무… ㄷ    nng  
## 6     1 "이보다 더 유쾌할 수 없고 이보다 더 무… ㄷ    nng  
## # … with 25 more rows
…
  filter(pos == "nng") %>% 
  filter(word != "영화") %>% 
  count(word) %>% 
  pivot_wider(names_from = label,
              values_from = n, 
              values_fill = list(n = 0)) %>% 
  rename(posi = `1`, nega = `0`) %>% 
  mutate(odds_posi = ((posi+1)/sum(posi+1)),
         odds_nega = ((nega+1)/sum(nega+1))) %>% 
  mutate(posi_odds_ratio = (odds_posi / odds_nega)) %>% 
  # 승산비 1을 중심으로 정렬
  arrange(abs(1 - posi_odds_ratio)) %>% 
  head(20)

## # A tibble: 20 × 6
##   word    nega  posi odds_posi odds_nega posi_odds_ratio
##   <chr>  <int> <int>     <dbl>     <dbl>           <dbl>
## 1 이야기    14    13   0.00253   0.00250           1.01 
## 2 개봉      10     9   0.00181   0.00184           0.983
## 3 정도      18    16   0.00307   0.00317           0.968
## 4 결말       7     6   0.00126   0.00134           0.946
## 5 몰입       7     6   0.00126   0.00134           0.946
## 6 이상      15    13   0.00253   0.00267           0.946
## # … with 14 more rows
…
  filter(word != "영화") %>% 
  count(word) %>% 
  pivot_wider(names_from = label,
              values_from = n, 
              values_fill = list(n = 0)) %>% 
  rename(posi = `1`, nega = `0`) %>% 
  # 긍정평과 부정평에서 각각 10회 초과한 단어 filter
  filter(nega > 10 & posi > 10) %>%  
  mutate(odds_posi = ((posi+1)/sum(posi+1)),
         odds_nega = ((nega+1)/sum(nega+1))) %>% 
  mutate(posi_odds_ratio = (odds_posi / odds_nega)) %>% 
  arrange(abs(1 - posi_odds_ratio)) %>% 
  head(20)

## # A tibble: 20 × 6
##   word    nega  posi odds_posi odds_nega posi_odds_ratio
##   <chr>  <int> <int>     <dbl>     <dbl>           <dbl>
## 1 이야기    14    13    0.0201    0.0199           1.01 
## 2 정도      18    16    0.0244    0.0252           0.968
## 3 이상      15    13    0.0201    0.0212           0.947
## 4 연출      14    12    0.0187    0.0199           0.938
## 5 드라마    35    35    0.0516    0.0477           1.08 
## 6 배우      27    22    0.0330    0.0371           0.889
## # … with 14 more rows
…
  unnest_tokens(word, document, token = RcppMeCab::pos) %>% 
  separate(word, c("word", "pos"), sep = "/") %>% 
  filter(pos == "nng") %>% 
  filter(word != "영화") %>% 
  count(word) %>% 
  pivot_wider(names_from = label,
              values_from = n, 
              values_fill = list(n = 0)) %>% 
  rename(posi = `1`, nega = `0`) %>% 
  mutate(odds_posi = ((posi+1)/sum(posi+1)),
         odds_nega = ((nega+1)/sum(nega+1))) %>% 
  # 승산비에 로그를 취한다.
  mutate(log_odds_ratio = log(odds_posi / odds_nega)) 

## # A tibble: 2,294 × 6
##   word   nega  posi odds_posi odds_nega log_odds_ratio
##   <chr> <int> <int>     <dbl>     <dbl>          <dbl>
## 1 가가      1     0  0.000181  0.000334         -0.615
## 2 가관      1     0  0.000181  0.000334         -0.615
## 3 가능      1     4  0.000903  0.000334          0.995
## 4 가든      1     0  0.000181  0.000334         -0.615
## 5 가리      1     0  0.000181  0.000334         -0.615
## 6 가문      1     0  0.000181  0.000334         -0.615
## # … with 2,288 more rows
…
rate_log_df  %>% 
  group_by(label  = ifelse(log_odds_ratio > 0, "긍정평", "부정평")) %>% 
  # 긍정평과 부정평별 각각 상위 10개 
  slice_max(abs(log_odds_ratio), n = 10) 

## # A tibble: 26 × 7
## # Groups:   label [2]
##   word   nega  posi odds_posi odds_nega log_odds_ratio label
##   <chr> <int> <int>     <dbl>     <dbl>          <dbl> <chr>
## 1 굿        0    17   0.00325  0.000167           2.97 긍정…
## 2 밋        0    16   0.00307  0.000167           2.91 긍정…
## 3 ㄷ        0    15   0.00289  0.000167           2.85 긍정…
## 4 삶        0    11   0.00217  0.000167           2.56 긍정…
## 5 최고      8    83   0.0152   0.00150            2.31 긍정…
## 6 만족      0     8   0.00162  0.000167           2.28 긍정…
## # … with 20 more rows
…
weighted_log_odds_df <- by1000_df %>% 
  unnest_tokens(word, document, token = RcppMeCab::pos) %>% 
  separate(word, c("word", "pos"), sep = "/") %>% 
  filter(pos == "nng") %>% 
  filter(word != "영화") %>% 
  count(word) %>% 
  bind_log_odds(set = label,
                feature = word,
                n = n) %>% 
  arrange(-log_odds_weighted)

weighted_log_odds_df

## # A tibble: 2,819 × 4
## # Groups:   label [2]
##   label word      n log_odds_weighted
##   <dbl> <chr> <int>             <dbl>
## 1     0 짜증     24              3.18
## 2     0 최악     24              3.18
## 3     1 굿       17              3.07
## 4     1 최고     83              3.06
## 5     1 밋       16              2.98
## 6     1 ㄷ       15              2.88
## # … with 2,813 more rows

긍정평과 부정평별 가중로그승산비 상위 10개 추출한다.

weighted_log_odds_df %>%   
  group_by(label = ifelse(label > 0, "긍정평", "부정평")) %>% 
  slice_max(abs(log_odds_weighted), n = 10) # 긍정평과 부정평별 각각 상위 10개

## # A tibble: 22 × 4
## # Groups:   label [2]
##   label  word      n log_odds_weighted
##   <chr>  <chr> <int>             <dbl>
## 1 긍정평 굿       17              3.07
## 2 긍정평 최고     83              3.06
## 3 긍정평 밋       16              2.98
## 4 긍정평 ㄷ       15              2.88
## 5 긍정평 삶       11              2.46
## 6 긍정평 감동     58              2.28
## # … with 16 more rows
…
부정평으로 분류된 내용 중 ’최고’와 ’감동’이 부정평에 들어 있다. 어떤 문장인지 확인해보자.

by1000_df %>% 
  unnest_tokens(word, document, token = RcppMeCab::pos, drop = FALSE) %>% 
  separate(word, c("word", "pos"), sep = "/") %>% 
  filter(pos == "nng") %>% 
  filter(word != "영화") %>% 
  filter(label == 0) %>% 
  filter(word == "최고" | word == "감동")

## # A tibble: 19 × 4
## # Groups:   label [1]
##   label document                                word  pos  
##   <dbl> <chr>                                   <chr> <chr>
## 1     0 "액션이 부족한 가운데 이야기 자체가 허… 감동  nng  
## 2     0 "액션이 부족한 가운데 이야기 자체가 허… 감동  nng  
## 3     0 "액션이 부족한 가운데 이야기 자체가 허… 최고  nng  
## 4     0 "액션이 부족한 가운데 이야기 자체가 허… 최고  nng  
## 5     0 "액션이 부족한 가운데 이야기 자체가 허… 최고  nng  
## 6     0 "액션이 부족한 가운데 이야기 자체가 허… 최고  nng  
## # … with 13 more rows
…
tf_idf 계산를 계산한다.

tf_idf_df <- by1000_df %>% 
  unnest_tokens(word, document, token = RcppMeCab::pos) %>% 
  separate(word, c("word", "pos"), sep = "/") %>% 
  filter(pos == "nng") %>% 
  filter(word != "영화") %>% 
  count(word) %>% 
  bind_tf_idf(term = word,
              document = label,
              n = n)
tf_idf_df

## # A tibble: 2,819 × 6
## # Groups:   label [2]
##   label word      n       tf   idf   tf_idf
##   <dbl> <chr> <int>    <dbl> <dbl>    <dbl>
## 1     0 가가      1 0.000270 0.693 0.000187
## 2     0 가관      1 0.000270 0.693 0.000187
## 3     0 가능      1 0.000270 0     0       
## 4     0 가든      1 0.000270 0.693 0.000187
## 5     0 가리      1 0.000270 0.693 0.000187
## 6     0 가문      1 0.000270 0.693 0.000187
## # … with 2,813 more rows

긍정평과 부정평별 상위 10개 추출한다.

tf_idf_df %>% 
  group_by(label = ifelse(label > 0, "긍정평", "부정평")) %>% 
  slice_max(tf_idf, n = 10) # 긍정평과 부정평별 각각 상위 10개 

## # A tibble: 21 × 6
## # Groups:   label [2]
##   label  word      n      tf   idf  tf_idf
##   <chr>  <chr> <int>   <dbl> <dbl>   <dbl>
## 1 긍정평 굿       17 0.00524 0.693 0.00363
## 2 긍정평 밋       16 0.00493 0.693 0.00342
## 3 긍정평 ㄷ       15 0.00462 0.693 0.00320
## 4 긍정평 삶       11 0.00339 0.693 0.00235
## 5 긍정평 만족      8 0.00246 0.693 0.00171
## 6 긍정평 행복      7 0.00216 0.693 0.00149
## # … with 15 more rows
…
ti_df <- 
tf_idf_df %>% 
  group_by(label = ifelse(label > 0, "긍정평", "부정평")) %>% 
  slice_max(tf_idf, n = 10) %>% 
  select(label, word, score = tf_idf) %>% 
  mutate(score = score * 600)

bind_rows(wlo_df, rlo_df, ti_df, .id = "ID") %>% tail(20)

## # A tibble: 20 × 4
## # Groups:   label [2]
##   ID    label  word  score
##   <chr> <chr>  <chr> <dbl>
## 1 3     긍정평 밋    2.05 
## 2 3     긍정평 ㄷ    1.92 
## 3 3     긍정평 삶    1.41 
## 4 3     긍정평 만족  1.02 
## 5 3     긍정평 행복  0.897
## 6 3     긍정평 뒤    0.769
## # … with 14 more rows
…
8.4.2 정제

먼저 drop_na()함수로 결측값을 제거하고, 토큰화한 다음, pos함수로 일반명사만 추출해, vac_tk로 저장한다.

vac_tk <- vac_df %>% 
  drop_na() %>% 
  unnest_tokens(word, 제목, token = RcppMeCab::pos) %>% 
  separate(word, c("word", "pos"), sep = "/") %>% 
  filter(pos == 'nng')

vac_tk

## # A tibble: 3,633 × 5
##   언론사   본문                           URL    word  pos  
##   <chr>    <chr>                          <chr>  <chr> <chr>
## 1 경향신문 "이틀간 2만322명에 접종 마쳐 … http:… 백신  nng  
## 2 경향신문 "이틀간 2만322명에 접종 마쳐 … http:… 접종  nng  
## 3 경향신문 "이틀간 2만322명에 접종 마쳐 … http:… 탈    nng  
## 4 경향신문 "이틀간 2만322명에 접종 마쳐 … http:… 곳곳  nng  
## 5 경향신문 "이틀간 2만322명에 접종 마쳐 … http:… 방역  nng  
## 6 경향신문 "이틀간 2만322명에 접종 마쳐 … http:… 해이  nng  
## # … with 3,627 more rows
…
total_fq <- vac_tk %>% 
  count(언론사, word, sort = TRUE) %>% 
  filter(word != "경향") %>% 
  filter(word != "포토") %>% 
  filter(word != "문화") %>% 
  filter(word != "조선") %>% 
  filter(word != "한겨레") %>% 
  filter(word != "백신") %>%
  filter(word != "접종") %>% 
  group_by(언론사) %>% 
  slice_max(n, n = 7) 

total_fq

## # A tibble: 32 × 3
## # Groups:   언론사 [4]
##   언론사   word       n
##   <chr>    <chr>  <int>
## 1 경향신문 코로나    23
## 2 경향신문 오늘      19
## 3 경향신문 카        14
## 4 경향신문 시작      13
## 5 경향신문 고령      10
## 6 경향신문 이상      10
## # … with 26 more rows
…
wlo_fq 

## # A tibble: 58 × 4
## # Groups:   언론사 [4]
##   언론사   word       n log_odds_weighted
##   <chr>    <chr>  <int>             <dbl>
## 1 경향신문 현장       5              2.76
## 2 경향신문 국산       4              2.47
## 3 경향신문 오늘      19              2.44
## 4 경향신문 사회       3              2.14
## 5 경향신문 삶         3              2.14
## 6 경향신문 입소자     3              2.14
## # … with 52 more rows
…
