10 . 주제모형 | R 텍스트마이닝
…
추출한 상위 10대 빈도 단어를 비교해 보자.

bind_cols(
  select(ap_count,  총빈도  = word),
  select(ap_tfidf, tf_idf = word),
  select(ap_wlo,  가중승산비  = word)
)

## # A tibble: 10 × 3
##   총빈도     tf_idf     가중승산비  
##   <chr>      <chr>      <chr>       
## 1 hearst     announcing hearst      
## 2 foundation monday     grants      
## 3 lincoln    400,000    announcing  
## 4 arts       receive    monday      
## 5 center     grants     metropolitan
## 6 grants     250,000    opera       
## # … with 4 more rows
…
분류별, 월별로 기사의 양을 계산해보자.

ai2_df %>% count(cat, sort = TRUE, name = "기사건수")

## # A tibble: 3 × 2
##   cat     기사건수
##   <chr>      <int>
## 1 IT_과학     1922
## 2 경제        1409
## 3 사회         460

ai2_df %>% count(month, sort = TRUE, name = "기사건수")

## # A tibble: 12 × 2
##   month 기사건수
##   <dbl>    <int>
## 1     1      382
## 2     9      379
## 3    12      366
## 4     7      345
## 5     6      335
## 6     5      334
## # … with 6 more rows
…
10.2.2.2 불용어 제거

’인공지능’으로 검색한 기사이므로, ’인공지능’관련 단어는 제거한다.
문자가 아닌 요소를 모두 제거한다. (숫자를 반드시 제거해야 하는 것은 아니다.)

ai_tk <- ai_tk %>% 
  filter(!word %in% c("인공지능", "AI", "ai", "인공지능AI", "인공지능ai")) %>% 
  filter(str_detect(word, "[:alpha:]+")) 

단어의 총빈도와 상대빈도를 살펴보자

ai_tk %>% count(word, sort = TRUE)

## # A tibble: 9,562 × 2
##   word       n
##   <chr>  <int>
## 1 기술    1933
## 2 기업    1674
## 3 데이터  1138
## 4 서비스  1114
## 5 개발    1094
## 6 코로나  1051
## # … with 9,556 more rows

상대빈도가 높은 단어와 낮은 단어를 확인한다.

ai_tk %>% count(cat, word, sort = TRUE) %>% 
  bind_log_odds(set = cat, feature = word, n = n) %>% 
  arrange(log_odds_weighted)

## # A tibble: 16,139 × 4
##   cat     word       n log_odds_weighted
##   <chr>   <chr>  <int>             <dbl>
## 1 IT_과학 반도체    32             -5.78
## 2 IT_과학 투자     230             -5.56
## 3 IT_과학 펀드      16             -5.07
## 4 경제    전자      92             -5.07
## 5 IT_과학 종목       5             -4.92
## 6 IT_과학 금융     140             -4.84
## # … with 16,133 more rows

ai_tk %>% count(cat, word, sort = TRUE) %>% 
  bind_tf_idf(term = word, document = word, n = n) %>% 
  arrange(idf)

## # A tibble: 16,139 × 6
##   cat     word       n    tf   idf tf_idf
##   <chr>   <chr>  <int> <dbl> <dbl>  <dbl>
## 1 IT_과학 기술    1175 0.608  8.07   4.90
## 2 경제    기업     831 0.496  8.07   4.00
## 3 IT_과학 기업     771 0.461  8.07   3.72
## 4 IT_과학 서비스   735 0.660  8.07   5.32
## 5 IT_과학 데이터   671 0.590  8.07   4.76
## 6 IT_과학 개발     633 0.579  8.07   4.67
## # … with 16,133 more rows
…
## [1] "정희수 생보협회장 빅테크의 금융 진출에 규제 공백 없게 정희수 생명보험협회장은 새해 신년사로 빅테크의 금융상품 판매에 규제 공백이 발생하지 않도록 노력하겠다 밝혔다 정희수 협회장은 31일 공개한 신축년 신년사를 통해 동일기능 동일규제 원칙 하에 빅테크와 관련한 기울어진 운동장 이슈를 해결하고 빅테크 플랫폼 기업의 금융상품판매 유사행위에 대한 규제 공백이 발생하지 않도록 지속적으로 노력하겠다고 강조했"
## [2] "한국화웨이 ICT 챌린지 경진대회 16명에 6500만원 상금 수여 한국화웨이가 개최한 제1회 한국 화웨이 ICT 챌린지 경진대회 결과 총 16명의 수상자가 선정됐다 한국화웨이는 지난 28일 온라인으로 시상식을 열고 상장과 상금(총 6500만원)을 수여했다 회사 관계자는 한국화웨이 ICT 챌린지는 화웨이가 한국에서 한국을 위하여라는 비전 하에 국내 ICT 인재 발굴 및 양성을 위해 계획하고 추진한 또 다른"                       
## [3] "왜 청년들은 중소기업에서 일하려고 하지 않는걸까 (하) 중기야사20 저는 인문계 고등학교를 졸업해 전형적인 모범생으로 살아와 공업계 고등학교에 대한 편견이 있습니다 그런데 공고 전체 중 10 정도에 해당하는 마이스터고는 졸업 후 취업률이 거의 90에 가깝습니다 이 중에는 정부에서 운영하는 국립 공고뿐 아니라 포항제철고 현대공업고 처럼 대기업에서 운영하는 공고도 있습니다 이런 공고는 졸업생들이"

‘기업’ ‘기술’ 등의 단어는 총사용빈도가 높지만, 상대빈도는 낮다. 대부분의 분류에서 널리 사용된 단어다. 지금 제거할필요는 없지만, 제거가능성을 염두에 둔다.

ai2_tk <- ai_tk %>% 
  filter(str_length(word) > 1)

ai2_tk %>% 
  count(word, sort = TRUE) 

## # A tibble: 8,970 × 2
##   word       n
##   <chr>  <int>
## 1 기술    1933
## 2 기업    1674
## 3 데이터  1138
## 4 서비스  1114
## 5 개발    1094
## 6 코로나  1051
## # … with 8,964 more rows

상대빈도를 다시 확인하자.

ai2_tk %>% count(cat, word, sort = T) %>% 
  bind_log_odds(set = cat, feature = word, n = n) %>% 
  arrange(-log_odds_weighted)

## # A tibble: 14,990 × 4
##   cat     word       n log_odds_weighted
##   <chr>   <chr>  <int>             <dbl>
## 1 사회    교육     287              9.25
## 2 사회    대학     185              7.62
## 3 경제    자산     132              7.32
## 4 사회    학생     127              7.23
## 5 사회    치료      55              7.20
## 6 IT_과학 건조기   158              6.86
## # … with 14,984 more rows
…
td_gamma <- stm_fit %>% tidy(matrix = "gamma") 
td_gamma %>% glimpse()

## Rows: 21,504
## Columns: 3
## $ document <int> 1, 2, 3, 4, 5, 6, 7, 8, 9, 10, 11, 12, 13…
## $ topic    <int> 1, 1, 1, 1, 1, 1, 1, 1, 1, 1, 1, 1, 1, 1,…
## $ gamma    <dbl> 0.4677, 0.2027, 0.2440, 0.1080, 0.1209, 0…

td_gamma %>% 
  mutate(max = max(gamma),
         min = min(gamma),
         median = median(gamma))

## # A tibble: 21,504 × 6
##   document topic gamma   max    min median
##      <int> <int> <dbl> <dbl>  <dbl>  <dbl>
## 1        1     1 0.468 0.835 0.0225  0.120
## 2        2     1 0.203 0.835 0.0225  0.120
## 3        3     1 0.244 0.835 0.0225  0.120
## 4        4     1 0.108 0.835 0.0225  0.120
## 5        5     1 0.121 0.835 0.0225  0.120
## 6        6     1 0.149 0.835 0.0225  0.120
## # … with 21,498 more rows
…
